<?xml version="1.0" encoding="UTF-8"?>
<svg width="96px" height="126px" viewBox="0 0 96 126" version="1.1" xmlns="http://www.w3.org/2000/svg" xmlns:xlink="http://www.w3.org/1999/xlink">
    <!-- Generator: Sketch 48.2 (47327) - http://www.bohemiancoding.com/sketch -->
    <title>Shield/Tick</title>
    <desc>Created with Sketch.</desc>
    <defs></defs>
    <g id="Witter-Service-Centre-Results-V2-–-Desktop" stroke="none" stroke-width="1" fill="none" fill-rule="evenodd" transform="translate(-1224.000000, -337.000000)">
        <g id="Shield/Tick" transform="translate(1224.000000, 337.000000)" fill="#033462">
            <g id="Group-7">
                <g id="Shield">
                    <path d="M85.5827265,76.1311289 C85.5827265,96.2035086 50.1034879,111.560926 48.5907755,112.197009 C48.406797,112.288446 48.1941996,112.32025 48.0020442,112.32025 C47.7935352,112.32025 47.6013798,112.288446 47.3969592,112.197009 C45.9046889,111.560926 10.4254504,96.2035086 10.4254504,76.1311289 L10.4254504,27.0772386 C10.4254504,26.2861109 11.0836847,25.6341263 11.9013671,25.6341263 C41.4605852,25.6341263 46.5751885,14.6776046 46.6324262,14.5702657 C46.8654657,14.0415221 47.4010477,13.6837256 47.9979558,13.6837256 L48.0143094,13.6837256 C48.6234828,13.6916767 49.1549764,14.0494731 49.3757506,14.5941188 C49.4207231,14.6935067 54.441293,25.6341263 84.1027213,25.6341263 C84.9244921,25.6341263 85.578638,26.2861109 85.578638,27.0772386 C85.578638,27.0772386 85.578638,76.1311289 85.5827265,76.1311289 M94.1070653,15.273932 C56.2238406,15.273932 49.8091223,1.28806714 49.7518845,1.15687512 C49.4738725,0.473086389 48.7951961,0.0159020635 48.010221,0 L47.9856906,0 C47.2293344,0 46.5383927,0.457184325 46.2440271,1.12507099 C46.1908777,1.27216508 39.6371534,15.273932 1.8888463,15.273932 C0.838124441,15.273932 0,16.1048148 0,17.1066448 L0,79.776677 C0,105.430681 45.320046,125.029974 47.2334228,125.852906 C47.4869043,125.960245 47.7362974,126 48.0020442,126 C48.2514373,126 48.5171841,125.960245 48.754312,125.852906 C50.6881308,125.029974 96,105.430681 96,79.776677 L96,17.1066448 C95.9959116,16.1048148 95.1577871,15.273932 94.1070653,15.273932" id="Fill-1"></path>
                </g>
            </g>
            <g id="Icon-/-Tick-/-Dark" transform="translate(23.000000, 44.000000)">
                <g id="Tick">
                    <path d="M0.576923077,20.5919992 C0.192307692,20.2175993 0,19.6559993 0,19.2815993 C0,18.9071993 0.192307692,18.3455993 0.576923077,17.9711993 L3.26923077,15.3503994 C4.03846154,14.6015995 5.19230769,14.6015995 5.96153846,15.3503994 L6.15384615,15.5375994 L16.7307692,26.582399 C17.1153846,26.956799 17.6923077,26.956799 18.0769231,26.582399 L43.8461538,0.561599979 L44.0384615,0.561599979 C44.8076923,-0.187199993 45.9615385,-0.187199993 46.7307692,0.561599979 L49.4230769,3.18239988 C50.1923077,3.93119986 50.1923077,5.05439981 49.4230769,5.80319979 L18.6538462,36.8783986 C18.2692308,37.2527986 17.8846154,37.4399986 17.3076923,37.4399986 C16.7307692,37.4399986 16.3461538,37.2527986 15.9615385,36.8783986 L0.961538462,21.1535992 L0.576923077,20.5919992 Z" id="Fill-1"></path>
                </g>
            </g>
        </g>
    </g>
</svg>