<?xml version="1.0" encoding="UTF-8"?>
<svg width="80px" height="80px" viewBox="0 0 80 80" version="1.1" xmlns="http://www.w3.org/2000/svg" xmlns:xlink="http://www.w3.org/1999/xlink">
    <!-- Generator: sketchtool 49.3 (51167) - http://www.bohemiancoding.com/sketch -->
    <title>E1EBE829-591B-493C-87C5-4FA59CF7B71C</title>
    <desc>Created with sketchtool.</desc>
    <defs></defs>
    <g id="Main-Artwork" stroke="none" stroke-width="1" fill="none" fill-rule="evenodd">
        <g id="Cycle-Carriers-(no-design)---Desktop" transform="translate(-1160.000000, -670.000000)" fill="#FFFFFF">
            <g id="Icon-/-Basket-No-Stock-/-White" transform="translate(1160.000000, 670.000000)">
                <g id="Page-1" stroke-width="1">
                    <path d="M73.6319187,31.0027094 L64.59009,73.3875324 L64.59009,73.4959335 C64.59009,73.6043346 64.2746774,73.8211367 64.1695398,73.8211367 L15.7431877,73.8211367 C15.6380501,73.8211367 15.4277751,73.6043346 15.3226375,73.4959335 L6.28080884,31.1111105 L73.6739737,31.1111105 L73.6319187,31.0027094 Z M78.9939334,26.6666661 C78.1118294,25.4959345 76.7524009,24.8151757 75.3141194,24.8238477 L74.2627439,24.8238477 L49.2400088,0.867208655 C48.6670092,0.319783191 47.9184299,0.0108401082 47.1372579,0 C46.339264,0.0260162596 45.583325,0.377235765 45.0345071,0.975609737 C44.5035625,1.56639563 44.2039205,2.33821134 44.1934067,3.14363137 C44.2112801,3.99241185 44.5971349,4.78807579 45.2447822,5.31165301 L65.3260528,24.8238477 L14.5446197,24.8238477 L34.7310279,5.42005409 C35.8927977,4.25474246 35.9842674,2.36314358 34.941303,1.08401082 C33.8163313,-0.124661244 31.9722188,-0.218970185 30.7358013,0.867208655 L5.71306611,24.8238477 L4.66169069,24.8238477 C3.26441274,24.752303 1.92496045,25.4027095 1.08701424,26.5582651 C0.130262598,27.6856363 -0.224050921,29.2270997 0.140776352,30.6775062 L9.43493512,74.6883454 C10.0447329,77.7799443 12.6826338,80.0021664 15.7431877,79.9999984 L64.4218699,79.9999984 C67.4435229,79.8915973 70.0235982,77.7181556 70.7301225,74.6883454 L79.9822263,30.6775062 C80.085261,29.2650401 79.7383072,27.85691 78.9939334,26.6666661 Z" id="Fill-1"></path>
                </g>
                <path d="M43.7017719,53.0002126 L56.6278082,40.0738723 C57.1240639,39.5780465 57.1240639,38.7658448 56.6278082,38.2695937 L54.730385,36.3721883 C54.2345545,35.8759372 53.4223451,35.8759372 52.9260894,36.3721883 L40.0000532,49.2985286 L27.0735916,36.3721883 C26.5777612,35.8759372 25.765977,35.8759372 25.2697213,36.3721883 L23.3718728,38.2695937 C22.8760424,38.7658448 22.8760424,39.5780465 23.3718728,40.0738723 L36.2983344,53.0002126 L23.3718728,65.9261277 C22.8760424,66.4219535 22.8760424,67.2341552 23.3718728,67.7304063 L25.2697213,69.6278117 C25.765977,70.1240628 26.5777612,70.1240628 27.0735916,69.6278117 L40.0000532,56.7014714 L52.9260894,69.6278117 C53.4223451,70.1240628 54.2345545,70.1240628 54.730385,69.6278117 L56.6278082,67.7304063 C57.1240639,67.2341552 57.1240639,66.4219535 56.6278082,65.9261277 L43.7017719,53.0002126 Z" id="Fill-1"></path>
            </g>
        </g>
    </g>
</svg>