<?xml version="1.0" encoding="UTF-8"?>
<svg width="20px" height="16px" viewBox="0 0 20 16" version="1.1" xmlns="http://www.w3.org/2000/svg" xmlns:xlink="http://www.w3.org/1999/xlink">
    <!-- Generator: sketchtool 51.2 (57519) - http://www.bohemiancoding.com/sketch -->
    <title>7E2BB312-2E52-4244-AA58-982695F4DE3F-445-00000CF8307C63A0</title>
    <desc>Created with sketchtool.</desc>
    <defs></defs>
    <g id="Main-Artwork" stroke="none" stroke-width="1" fill="none" fill-rule="evenodd">
        <g id="Witter-Homepage-–-Desktop" transform="translate(-925.000000, -27.000000)" fill="#FFFFFF">
            <g id="Elements-/-Header">
                <g id="CTA-/-Responsive-/-Blue-Small" transform="translate(820.000000, 15.000000)">
                    <g id="Icon-/-Add-/-White" transform="translate(105.000000, 10.000000)">
                        <path d="M1.91967535,7.01728095 C2.17258414,7.19304799 2.93507761,7.71445092 4.20715576,8.58199527 C5.48009007,9.45021371 6.45456803,10.1183981 7.13144579,10.5865485 C7.20576022,10.6377788 7.36432051,10.7496765 7.6057568,10.9215676 C7.84787801,11.0939642 8.04856123,11.2328253 8.20849137,11.3388247 C8.36825027,11.4454983 8.56157053,11.5637998 8.78896585,11.6962571 C9.01567624,11.8280402 9.2297155,11.9267933 9.43039871,11.9925164 C9.63176685,12.058408 9.81772416,12.0912695 9.98895557,12.0912695 L10.0110444,12.0912695 C10.1822758,12.0912695 10.3682331,12.058408 10.5696013,11.9925164 C10.7702845,11.9267933 10.9843238,11.8273661 11.2110342,11.6962571 C11.4377445,11.5637998 11.6310648,11.4454983 11.7915086,11.3388247 C11.9514388,11.2328253 12.152122,11.0939642 12.3935583,10.9215676 C12.6356795,10.7496765 12.7942398,10.6377788 12.868383,10.5865485 C13.5527949,10.117724 15.2937047,8.92830523 18.0916259,7.01660686 C18.634772,6.6433336 19.088364,6.1930464 19.4529156,5.66574525 C19.8172961,5.13844411 20,4.58620191 20,4.00750196 C20,3.52435323 19.8227755,3.11029797 19.4695251,2.76601026 C19.1164459,2.42172255 18.6976139,2.25 18.2140564,2.25 L1.78594361,2.25 C1.21266085,2.25 0.771911199,2.44025982 0.462838503,2.82128504 C0.154450732,3.20180469 0,3.67770703 0,4.24916059 C0,4.71057015 0.204621536,5.21023391 0.614035839,5.74882594 C1.02276522,6.28657537 1.45820669,6.70989926 1.91967535,7.01728095" id="Fill-1"></path>
                        <path d="M18.8835712,8.1357053 C16.4435236,9.77659748 14.5907997,11.0520151 13.3259133,11.9612777 C12.9017731,12.2723053 12.5574267,12.5142536 12.2932167,12.6874626 C12.0296915,12.8618627 11.677811,13.0393254 11.2389449,13.2198508 C10.7995651,13.4015672 10.3908357,13.4919149 10.0110444,13.4919149 L9.98895557,13.4919149 C9.60899307,13.4919149 9.19975,13.4015672 8.7608839,13.2198508 C8.32218902,13.0393254 7.97030847,12.8618627 7.70609841,12.6874626 C7.44257327,12.5142536 7.09805567,12.2723053 6.67408669,11.9612777 C5.66930078,11.2294779 3.82051524,9.95406021 1.12704515,8.1357053 C0.702904941,7.85445325 0.327051994,7.5328765 0,7.17063475 L0,15.9757125 C0,16.4642029 0.174656039,16.8815721 0.52431058,17.2291813 C0.874136352,17.5767905 1.29485193,17.7499995 1.78594361,17.7499995 L18.2140564,17.7499995 C18.7049768,17.7499995 19.1256924,17.5767905 19.4755182,17.2291813 C19.825344,16.8815721 20,16.4642029 20,15.9757125 L20,7.17063475 C19.6794548,7.5255602 19.3077114,7.84713696 18.8835712,8.1357053" id="Fill-4"></path>
                    </g>
                </g>
            </g>
        </g>
    </g>
</svg>