<?xml version="1.0" encoding="UTF-8"?>
<svg width="40px" height="40px" viewBox="0 0 40 40" version="1.1" xmlns="http://www.w3.org/2000/svg" xmlns:xlink="http://www.w3.org/1999/xlink">
    <!-- Generator: sketchtool 50.2 (55047) - http://www.bohemiancoding.com/sketch -->
    <title>8B3340BC-ED91-4805-AD61-9CFDA31ADB80</title>
    <desc>Created with sketchtool.</desc>
    <defs></defs>
    <g id="Main-Artwork" stroke="none" stroke-width="1" fill="none" fill-rule="evenodd">
        <g id="Towbar-Product-Page-–-Desktop" transform="translate(-200.000000, -1315.000000)" fill="#014789">
            <g id="Icon-/-Garage-Fitter-/-Colour" transform="translate(200.000000, 1315.000000)">
                <g id="Page-1">
                    <path d="M39.2942691,9.88918551 L20.7233697,0.167865824 C20.1691567,-0.057735538 19.547916,-0.0557952604 18.995114,0.172804713 L0.699733653,9.88689245 C0.276224578,10.0620466 0,10.4742674 0,10.9316437 L0,15.0831321 C0,15.7077251 0.507999224,16.2141375 1.13488438,16.2141375 L1.98595947,16.2141375 C2.14259256,16.2141375 2.26959237,16.3407847 2.26959237,16.4968889 L2.26959237,37.4550614 C2.26959237,38.8607043 3.41259062,40 4.82281763,40 L8.88839892,40 C9.23676644,39.9925917 9.36993985,39.8525389 9.36993985,39.5038181 L9.36993985,38.985764 L9.37046902,38.9852348 L9.37046902,38.0847697 C9.37046902,37.8596975 9.5535604,37.677135 9.77951423,37.677135 L16.1173337,37.677135 C16.4821054,37.6751947 16.6193357,37.5356711 16.6193357,37.1797184 L16.6193357,36.6618407 L16.6202177,36.6609587 L16.6195121,28.1371431 C16.6191593,27.0273043 16.6214524,26.1028503 16.6242746,26.0829183 C14.190288,24.8534879 12.523592,22.3353604 12.52271,19.4406427 C12.526767,16.6709847 14.0366536,14.2616892 16.2753779,12.9761671 L16.2782001,16.9216333 C16.2789057,18.0316484 17.0680684,19.3944288 18.0320322,19.9502302 L18.2422874,20.0715857 C19.2062512,20.6272106 20.7842238,20.628269 21.7487168,20.0738787 L21.9603831,19.951994 C22.9250525,19.3974274 23.713686,18.0357054 23.7129804,16.9258666 L23.7101582,12.9804004 C25.9614062,14.2616892 27.4702344,16.672043 27.4774664,19.4364094 C27.4702344,22.2173563 25.9375937,24.651699 23.661475,25.9246975 L23.6648263,37.1804239 C23.6674722,37.5369058 23.8050553,37.6737836 24.1511298,37.677135 L30.2206622,37.677135 C30.446616,37.677135 30.6297074,37.8596975 30.6297074,38.0847697 L30.6297074,39.5110501 C30.6346463,39.8636514 30.7736405,39.9985889 31.1227136,40 L35.1773588,40 C36.5874094,40 37.730584,38.8607043 37.730584,37.4550614 L37.730584,16.4968889 C37.730584,16.3407847 37.8574074,16.2141375 38.0142169,16.2141375 L38.865292,16.2141375 C39.4920008,16.2141375 40,15.7077251 40,15.0831321 L40,10.9362298 C40,10.4767368 39.7211296,10.0629285 39.2942691,9.88918551" id="Fill-1"></path>
                </g>
            </g>
        </g>
    </g>
</svg>