<?xml version="1.0" encoding="UTF-8"?>
<svg width="18px" height="20px" viewBox="0 0 18 20" version="1.1" xmlns="http://www.w3.org/2000/svg" xmlns:xlink="http://www.w3.org/1999/xlink">
    <!-- Generator: sketchtool 49 (51002) - http://www.bohemiancoding.com/sketch -->
    <title>11C8B9E1-D292-49B6-BE48-7BB49E913A55</title>
    <desc>Created with sketchtool.</desc>
    <defs></defs>
    <g id="Website" stroke="none" stroke-width="1" fill="none" fill-rule="evenodd">
        <g id="Witter-Towbar-Guide-–-Desktop" transform="translate(-843.000000, -130.000000)" fill="#FFFFFF">
            <g id="Red-Bar" transform="translate(0.000000, 120.000000)">
                <g id="Trust-Since" transform="translate(841.666667, 10.000000)">
                    <g id="Icon-/-Shield-/-White">
                        <path d="M8.36363281,14.5454297 L4.72730469,10.9091016 L6.01367188,9.62273437 L8.36363281,11.9727344 L14.35,5.98636719 L15.6364062,7.27273437 L8.36363281,14.5454297 Z M10.1818359,0 L2,3.63636719 L2,9.09089844 C2,14.1409375 5.48636719,18.8499609 10.1818359,20 C14.8773047,18.8499609 18.3636328,14.1409375 18.3636328,9.09089844 L18.3636328,3.63636719 L10.1818359,0 Z" id="Fill-1"></path>
                    </g>
                </g>
            </g>
        </g>
    </g>
</svg>